[{"page":1,"pages":2,"per_page":50,"total":65,"sourceid":"2","lastupdated":"2025-12-19"},[{"indicator":{"id":"SH.XPD.CHEX.PC.CD","value":"Current health expenditure per capita (current US$)"},"country":{"id":"IN","value":"India"},"countryiso3code":"IND","date":"2024","value":null,"unit":"","obs_status":"","decimal":2},{"indicator":{"id":"SH.XPD.CHEX.PC.CD","value":"Current health expenditure per capita (current US$)"},"country":{"id":"IN","value":"India"},"countryiso3code":"IND","date":"2023","value":null,"unit":"","obs_status":"","decimal":2},{"indicator":{"id":"SH.XPD.CHEX.PC.CD","value":"Current health expenditure per capita (current US$)"},"country":{"id":"IN","value":"India"},"countryiso3code":"IND","date":"2022","value":79.51509857,"unit":"","obs_status":"","decimal":2},{"indicator":{"id":"SH.XPD.CHEX.PC.CD","value":"Current health expenditure per capita (current US$)"},"country":{"id":"IN","value":"India"},"countryiso3code":"IND","date":"2021","value":75.54971313,"unit":"","obs_status":"","decimal":2},{"indicator":{"id":"SH.XPD.CHEX.PC.CD","value":"Current health expenditure per capita (current US$)"},"country":{"id":"IN","value":"India"},"countryiso3code":"IND","date":"2020","value":63.83099747,"unit":"","obs_status":"","decimal":2},{"indicator":{"id":"SH.XPD.CHEX.PC.CD","value":"Current health expenditure per capita (current US$)"},"country":{"id":"IN","value":"India"},"countryiso3code":"IND","date":"2019","value":60.6913681,"unit":"","obs_status":"","decimal":2},{"indicator":{"id":"SH.XPD.CHEX.PC.CD","value":"Current health expenditure per capita (current US$)"},"country":{"id":"IN","value":"India"},"countryiso3code":"IND","date":"2018","value":57.46551132,"unit":"","obs_status":"","decimal":2},{"indicator":{"id":"SH.XPD.CHEX.PC.CD","value":"Current health expenditure per capita (current US$)"},"country":{"id":"IN","value":"India"},"countryiso3code":"IND","date":"2017","value":56.66844559,"unit":"","obs_status":"","decimal":2},{"indicator":{"id":"SH.XPD.CHEX.PC.CD","value":"Current health expenditure per capita (current US$)"},"country":{"id":"IN","value":"India"},"countryiso3code":"IND","date":"2016","value":59.72652817,"unit":"","obs_status":"","decimal":2},{"indicator":{"id":"SH.XPD.CHEX.PC.CD","value":"Current health expenditure per capita (current US$)"},"country":{"id":"IN","value":"India"},"countryiso3code":"IND","date":"2015","value":58.12401581,"unit":"","obs_status":"","decimal":2},{"indicator":{"id":"SH.XPD.CHEX.PC.CD","value":"Current health expenditure per capita (current US$)"},"country":{"id":"IN","value":"India"},"countryiso3code":"IND","date":"2014","value":56.3490181,"unit":"","obs_status":"","decimal":2},{"indicator":{"id":"SH.XPD.CHEX.PC.CD","value":"Current health expenditure per capita (current US$)"},"country":{"id":"IN","value":"India"},"countryiso3code":"IND","date":"2013","value":55.46933746,"unit":"","obs_status":"","decimal":2},{"indicator":{"id":"SH.XPD.CHEX.PC.CD","value":"Current health expenditure per capita (current US$)"},"country":{"id":"IN","value":"India"},"countryiso3code":"IND","date":"2012","value":48.45263672,"unit":"","obs_status":"","decimal":2},{"indicator":{"id":"SH.XPD.CHEX.PC.CD","value":"Current health expenditure per capita (current US$)"},"country":{"id":"IN","value":"India"},"countryiso3code":"IND","date":"2011","value":48.18242264,"unit":"","obs_status":"","decimal":2},{"indicator":{"id":"SH.XPD.CHEX.PC.CD","value":"Current health expenditure per capita (current US$)"},"country":{"id":"IN","value":"India"},"countryiso3code":"IND","date":"2010","value":44.79586029,"unit":"","obs_status":"","decimal":2},{"indicator":{"id":"SH.XPD.CHEX.PC.CD","value":"Current health expenditure per capita (current US$)"},"country":{"id":"IN","value":"India"},"countryiso3code":"IND","date":"2009","value":38.05965042,"unit":"","obs_status":"","decimal":2},{"indicator":{"id":"SH.XPD.CHEX.PC.CD","value":"Current health expenditure per capita (current US$)"},"country":{"id":"IN","value":"India"},"countryiso3code":"IND","date":"2008","value":37.65440369,"unit":"","obs_status":"","decimal":2},{"indicator":{"id":"SH.XPD.CHEX.PC.CD","value":"Current health expenditure per capita (current US$)"},"country":{"id":"IN","value":"India"},"countryiso3code":"IND","date":"2007","value":35.63138962,"unit":"","obs_status":"","decimal":2},{"indicator":{"id":"SH.XPD.CHEX.PC.CD","value":"Current health expenditure per capita (current US$)"},"country":{"id":"IN","value":"India"},"countryiso3code":"IND","date":"2006","value":29.37600899,"unit":"","obs_status":"","decimal":2},{"indicator":{"id":"SH.XPD.CHEX.PC.CD","value":"Current health expenditure per capita (current US$)"},"country":{"id":"IN","value":"India"},"countryiso3code":"IND","date":"2005","value":27.49770737,"unit":"","obs_status":"","decimal":2},{"indicator":{"id":"SH.XPD.CHEX.PC.CD","value":"Current health expenditure per capita (current US$)"},"country":{"id":"IN","value":"India"},"countryiso3code":"IND","date":"2004","value":24.9240799,"unit":"","obs_status":"","decimal":2},{"indicator":{"id":"SH.XPD.CHEX.PC.CD","value":"Current health expenditure per capita (current US$)"},"country":{"id":"IN","value":"India"},"countryiso3code":"IND","date":"2003","value":21.89380074,"unit":"","obs_status":"","decimal":2},{"indicator":{"id":"SH.XPD.CHEX.PC.CD","value":"Current health expenditure per capita (current US$)"},"country":{"id":"IN","value":"India"},"countryiso3code":"IND","date":"2002","value":20.15651703,"unit":"","obs_status":"","decimal":2},{"indicator":{"id":"SH.XPD.CHEX.PC.CD","value":"Current health expenditure per capita (current US$)"},"country":{"id":"IN","value":"India"},"countryiso3code":"IND","date":"2001","value":19.74444199,"unit":"","obs_status":"","decimal":2},{"indicator":{"id":"SH.XPD.CHEX.PC.CD","value":"Current health expenditure per capita (current US$)"},"country":{"id":"IN","value":"India"},"countryiso3code":"IND","date":"2000","value":18.47883415,"unit":"","obs_status":"","decimal":2},{"indicator":{"id":"SH.XPD.CHEX.PC.CD","value":"Current health expenditure per capita (current US$)"},"country":{"id":"IN","value":"India"},"countryiso3code":"IND","date":"1999","value":null,"unit":"","obs_status":"","decimal":2},{"indicator":{"id":"SH.XPD.CHEX.PC.CD","value":"Current health expenditure per capita (current US$)"},"country":{"id":"IN","value":"India"},"countryiso3code":"IND","date":"1998","value":null,"unit":"","obs_status":"","decimal":2},{"indicator":{"id":"SH.XPD.CHEX.PC.CD","value":"Current health expenditure per capita (current US$)"},"country":{"id":"IN","value":"India"},"countryiso3code":"IND","date":"1997","value":null,"unit":"","obs_status":"","decimal":2},{"indicator":{"id":"SH.XPD.CHEX.PC.CD","value":"Current health expenditure per capita (current US$)"},"country":{"id":"IN","value":"India"},"countryiso3code":"IND","date":"1996","value":null,"unit":"","obs_status":"","decimal":2},{"indicator":{"id":"SH.XPD.CHEX.PC.CD","value":"Current health expenditure per capita (current US$)"},"country":{"id":"IN","value":"India"},"countryiso3code":"IND","date":"1995","value":null,"unit":"","obs_status":"","decimal":2},{"indicator":{"id":"SH.XPD.CHEX.PC.CD","value":"Current health expenditure per capita (current US$)"},"country":{"id":"IN","value":"India"},"countryiso3code":"IND","date":"1994","value":null,"unit":"","obs_status":"","decimal":2},{"indicator":{"id":"SH.XPD.CHEX.PC.CD","value":"Current health expenditure per capita (current US$)"},"country":{"id":"IN","value":"India"},"countryiso3code":"IND","date":"1993","value":null,"unit":"","obs_status":"","decimal":2},{"indicator":{"id":"SH.XPD.CHEX.PC.CD","value":"Current health expenditure per capita (current US$)"},"country":{"id":"IN","value":"India"},"countryiso3code":"IND","date":"1992","value":null,"unit":"","obs_status":"","decimal":2},{"indicator":{"id":"SH.XPD.CHEX.PC.CD","value":"Current health expenditure per capita (current US$)"},"country":{"id":"IN","value":"India"},"countryiso3code":"IND","date":"1991","value":null,"unit":"","obs_status":"","decimal":2},{"indicator":{"id":"SH.XPD.CHEX.PC.CD","value":"Current health expenditure per capita (current US$)"},"country":{"id":"IN","value":"India"},"countryiso3code":"IND","date":"1990","value":null,"unit":"","obs_status":"","decimal":2},{"indicator":{"id":"SH.XPD.CHEX.PC.CD","value":"Current health expenditure per capita (current US$)"},"country":{"id":"IN","value":"India"},"countryiso3code":"IND","date":"1989","value":null,"unit":"","obs_status":"","decimal":2},{"indicator":{"id":"SH.XPD.CHEX.PC.CD","value":"Current health expenditure per capita (current US$)"},"country":{"id":"IN","value":"India"},"countryiso3code":"IND","date":"1988","value":null,"unit":"","obs_status":"","decimal":2},{"indicator":{"id":"SH.XPD.CHEX.PC.CD","value":"Current health expenditure per capita (current US$)"},"country":{"id":"IN","value":"India"},"countryiso3code":"IND","date":"1987","value":null,"unit":"","obs_status":"","decimal":2},{"indicator":{"id":"SH.XPD.CHEX.PC.CD","value":"Current health expenditure per capita (current US$)"},"country":{"id":"IN","value":"India"},"countryiso3code":"IND","date":"1986","value":null,"unit":"","obs_status":"","decimal":2},{"indicator":{"id":"SH.XPD.CHEX.PC.CD","value":"Current health expenditure per capita (current US$)"},"country":{"id":"IN","value":"India"},"countryiso3code":"IND","date":"1985","value":null,"unit":"","obs_status":"","decimal":2},{"indicator":{"id":"SH.XPD.CHEX.PC.CD","value":"Current health expenditure per capita (current US$)"},"country":{"id":"IN","value":"India"},"countryiso3code":"IND","date":"1984","value":null,"unit":"","obs_status":"","decimal":2},{"indicator":{"id":"SH.XPD.CHEX.PC.CD","value":"Current health expenditure per capita (current US$)"},"country":{"id":"IN","value":"India"},"countryiso3code":"IND","date":"1983","value":null,"unit":"","obs_status":"","decimal":2},{"indicator":{"id":"SH.XPD.CHEX.PC.CD","value":"Current health expenditure per capita (current US$)"},"country":{"id":"IN","value":"India"},"countryiso3code":"IND","date":"1982","value":null,"unit":"","obs_status":"","decimal":2},{"indicator":{"id":"SH.XPD.CHEX.PC.CD","value":"Current health expenditure per capita (current US$)"},"country":{"id":"IN","value":"India"},"countryiso3code":"IND","date":"1981","value":null,"unit":"","obs_status":"","decimal":2},{"indicator":{"id":"SH.XPD.CHEX.PC.CD","value":"Current health expenditure per capita (current US$)"},"country":{"id":"IN","value":"India"},"countryiso3code":"IND","date":"1980","value":null,"unit":"","obs_status":"","decimal":2},{"indicator":{"id":"SH.XPD.CHEX.PC.CD","value":"Current health expenditure per capita (current US$)"},"country":{"id":"IN","value":"India"},"countryiso3code":"IND","date":"1979","value":null,"unit":"","obs_status":"","decimal":2},{"indicator":{"id":"SH.XPD.CHEX.PC.CD","value":"Current health expenditure per capita (current US$)"},"country":{"id":"IN","value":"India"},"countryiso3code":"IND","date":"1978","value":null,"unit":"","obs_status":"","decimal":2},{"indicator":{"id":"SH.XPD.CHEX.PC.CD","value":"Current health expenditure per capita (current US$)"},"country":{"id":"IN","value":"India"},"countryiso3code":"IND","date":"1977","value":null,"unit":"","obs_status":"","decimal":2},{"indicator":{"id":"SH.XPD.CHEX.PC.CD","value":"Current health expenditure per capita (current US$)"},"country":{"id":"IN","value":"India"},"countryiso3code":"IND","date":"1976","value":null,"unit":"","obs_status":"","decimal":2},{"indicator":{"id":"SH.XPD.CHEX.PC.CD","value":"Current health expenditure per capita (current US$)"},"country":{"id":"IN","value":"India"},"countryiso3code":"IND","date":"1975","value":null,"unit":"","obs_status":"","decimal":2}]]
